{
	"BotPilot_Bf109" : "Bot",
	"BotPilot_Pe2" : "Bot",
	"BotPilot_Il2" : "Bot",
	"BotPilot_FW190" : "Bot",

	"BotGunner_Ju87D3" : "Bot",
	"BotGunner" : "Bot",
	"BotGunner_Il2m42" : "Bot",

	"Wagon_PlatformAA-MG34" : "AAA",
	"MG 34 AA turret" : "Turret",
	"VehicleTurret" : "Turret",
	"Wagon_PlatformAA-Flak38" : "AAA",
	"Flak 38 turret" : "Turret",
	"BlocksArray" : "Static",
	"Bf 109 F-4" : "Fighter",
	"Bf 109 G-2" : "Fighter",
	"Fw 190 A-3" : "Fighter",
	"He 111 H-6" : "Bomber",
	"Il-2 mod.1942" : "Attacker",
	"Ju 87 D-3" : "Attacker",
	"MC.202 ser.VIII" : "Fighter",
	"I-16 type 24" : "Fighter",
	"La-5 ser.8" : "Fighter", 
	"LaGG-3 ser.29" : "Fighter",
	"Pe-2 ser.87" : "Bomber",  
	"Yak-1 ser.69" : "Fighter",       
	"52-K" : "AAA",
 	"61-K" : "AAA",
 	"DShK" : "FiringPoint",
 	"Flak 37" : "AAA",
 	"Flak 38" : "AAA",
 	"German Landlight" : "Static",
 	"German Searchlight" : "Static",
 	"leFH 18" : "Artillery",
 	"MG 34" : "FiringPoint",
 	"MG 34 AA" : "AAA",
 	"ML-20" : "Artillery", 
 	"Pak 38" : "Artillery",
 	"Pak 40" : "Artillery",
 	"Radio Beacon" : "Static",
 	"Soviet Landlight" : "Static",
 	"Soviet Searchlight" : "Static",
 	"ZIS-2" : "Artillery", 
 	"ZIS-3" : "Artillery",
 	"BT-7M" : "Tank",
 	"KV-1-42" : "Tank",
 	"PzKpfw III Ausf.L" : "Tank",
 	"PzKpfw IV Ausf.G" : "Tank",
 	"Sd Kfz 10 Flak 38" : "AAA",
 	"Sd Kfz 251 Wurfrahmen 40" : "Artillery",
 	"StuG III Ausf.C-D" : "Tank",
 	"StuG III Ausf.F" : "Tank",
 	"T-34-76 STZ" : "Tank",
 	"T-70" : "Tank",
 	"Locomotive_E" : "Vehicle",
 	"Locomotive_G8" : "Vehicle",
 	"AA Platform 61K" : "Vehicle",
 	"AA Platform Flak 38" : "Vehicle",
 	"AA Platform M4" : "Vehicle",
 	"AA Platform MG 34" : "Vehicle",
 	"Wagon_BoxB" : "Vehicle",
 	"Wagon_BoxNB" : "Vehicle",
 	"Wagon_ET" : "Vehicle",
 	"Wagon_G8T" : "Vehicle",
 	"Wagon_GondolaB" : "Vehicle",
 	"Wagon_GondolaNB" : "Vehicle",
 	"Wagon_Pass" : "Vehicle", 
 	"Wagon_PassC" : "Vehicle",
 	"Wagon_PlatformB" : "Vehicle",
 	"Wagon_PlatformEmptyB" : "Vehicle",
 	"Wagon_PlatformEmptyNB" : "Vehicle",
 	"Wagon_PlatformNB" : "Vehicle",
	"Wagon_PlatformAA-M4" : "Vehicle",
	"Wagon_PlatformAA-61K" : "Vehicle",
 	"Wagon_TankB" : "Vehicle",
 	"Wagon_TankNB" : "Vehicle",
 	"BA-10M" : "Vehicle",
 	"BA-64" : "Vehicle",
 	"Ford G917" : "Vehicle",
 	"GAZ-AA" : "Vehicle",
 	"GAZ-AA M4" : "AAA", 
 	"GAZ-M" : "Vehicle",
 	"Horch 830" : "Vehicle",
 	"Opel Blitz" : "Vehicle",
 	"Sd Kfz 251-1 Ausf.C" : "Vehicle",
 	"ZiS-5" : "Vehicle",
 	"ZiS-6 BM-13" : "Artillery",
 	"Turret_He111H6_1" : "Turret",
 	"Turret_He111H6_1M" : "Turret",
 	"Turret_He111H6_2" : "Turret",
 	"Turret_He111H6_3" : "Turret",
 	"Turret_He111H6_3M" : "Turret",
 	"Turret_He111H6_4" : "Turret",
 	"Turret_Il2m42" : "Turret",
 	"Turret_Ju87D3" : "Turret",
	"Turret_Pe2s87_1M" : "Turret",
	"Turret_Pe2s87_1" : "Turret",
	"Turret_Pe2s87_2" : "Turret",
	"M4 turret" : "Turret",
	"61-K turret" : "Turret"	
 }
